{"titulo":"Mario Kart 8: Deluxe","fechaLanzamiento":"27/03/2017","desarrolladora":"P4060209F","categoria":"CARRERAS","pegi":"3"}
{"titulo":"Bayonetta & Vanquish: Anniversary Edition","fechaLanzamiento":"18/02/2020","pegi":"18","desarrolladora":"E31071541","categoria":"ACCION"}
{"titulo":"Sekiro: Shadows Die Twice","fechaLanzamiento":"22/03/2019","pegi":"18","desarrolladora":"F0945120D","categoria":"ACCION"}
{"titulo":"Animal Crossing: New Horizons","fechaLanzamiento":"20/03/2020","pegi":"3","desarrolladora":"P4060209F","categoria":"SIMULACION"}
{"titulo":"Half-Life: Alyx","fechaLanzamiento":"23/03/2020","pegi":"18","desarrolladora":"G85294569","categoria":"SHOOTER"}
{"titulo":"Jedi: Fallen Order","fechaLanzamiento":"15/11/2019","pegi":"16","desarrolladora":"B42066019","categoria":"AVENTURA"}
{"titulo":"FIFA 20","fechaLanzamiento":"10/09/2019","pegi":"3","desarrolladora":"B42066019","categoria":"DEPORTIVO"}